{
  "imports": [
    {
      "id": "Long",
      "location": "java.lang"
    },
    {
      "id": "ReferralDetails",
      "location": ".dtos"
    }
  ],
  "name": "Referral",
  "properties": [
    {
      "name": "id",
      "type": "Long"
    },
    {
      "name": "resourceId",
      "type": "Long"
    },
    {
      "name": "appointmentId",
      "type": "Long"
    },
    {
      "name": "details",
      "type": "ReferralDetails"
    }
  ]
}
