{
  "imports": [
    {
      "id": "String",
      "location": "java.lang"
    },
    {
      "id": "Long",
      "location": "java.long"
    },
    {
      "id": "LocalDateTime",
      "location": "java.time"
    }
  ],
  "name": "AppointmentTimeDTO",
  "properties": [
    {
      "name": "specialtyName",
      "type": "String"
    },
    {
      "name": "resourceName",
      "type": "String"
    },
    {
      "name": "id",
      "type": "Long"
    },
    {
      "name": "fromTime",
      "type": "LocalDateTime"
    },
    {
      "name": "toTime",
      "type": "LocalDateTime"
    }
  ]
}
