{
  "imports": [
    {
      "id": "String",
      "location": "java.lang"
    }
  ],
  "name": "ReferralDetails",
  "properties": [
    {
      "name": "description",
      "type": "String"
    },
    {
      "name": "icd10",
      "type": "String"
    }
  ]
}
