{
  "name": "SelectResource",
  "imports": [
    {
      "id": "Resource",
      "location": ".entities"
    }
  ],
  "input": [
    {
      "name": "availableResources",
      "type": "Resource[]"
    }
  ],
  "output": "Resource"
}

