{
  "name": "SelectAppointmentTime",
  "imports": [
    {
      "id": "AppointmentTime",
      "location": ".entities"
    }
  ],
  "input": [
    {
      "name": "availableAppointmentTimes",
      "type": "AppointmentTime[]"
    }
  ],
  "output": "AppointmentTime"
}

